module github.com/jxskiss/ssl-cert-server

// go: no requirements found in glide.lock

require (
	github.com/aws/aws-sdk-go v1.19.34
	github.com/go-redis/redis v6.15.2+incompatible
	github.com/onsi/ginkgo v1.8.0 // indirect
	github.com/onsi/gomega v1.5.0 // indirect
	golang.org/x/crypto v0.0.0-20190313024323-a1f597ede03a
)
